14 Pasos para estimar causalidad – DataLab for causal inference
…
library(broom)
library(propensity)
net_data_wts <- propensity_model |>
  augment(newdata = net_data, type.predict = "response") |>
  # .fitted is the value predicted by the model
  # for a given observation
  mutate(wts = wt_ate(.fitted, net))

ℹ Treating `.exposure` as binary

net_data_wts |>
  select(net, .fitted, wts) 

# A tibble: 1,752 × 3
   net   .fitted   wts
   <lgl>   <dbl> <dbl>
 1 FALSE   0.246  1.33
 2 FALSE   0.218  1.28
 3 FALSE   0.323  1.48
 4 FALSE   0.231  1.30
 5 FALSE   0.279  1.39
 6 FALSE   0.306  1.44
 7 FALSE   0.332  1.50
 8 FALSE   0.168  1.20
 9 FALSE   0.222  1.29
10 FALSE   0.255  1.34
# ℹ 1,742 more rows
…
Ahora que sabemos exactamente cómo calcular la estimación para cada iteración, creemos el conjunto de datos de arranque con bootstraps()la función rsample. El timesargumento determina cuántos conjuntos de datos arrancados se crearán; haremos 1.000.

bootstrapped_net_data <- bootstraps(
  net_data,
  times = 1000,
  # required to calculate CIs later
  apparent = TRUE
)

bootstrapped_net_data

# Bootstrap sampling with apparent sample 
# A tibble: 1,001 × 2
   splits             id           
   <list>             <chr>        
 1 <split [1752/641]> Bootstrap0001
 2 <split [1752/630]> Bootstrap0002
 3 <split [1752/630]> Bootstrap0003
 4 <split [1752/638]> Bootstrap0004
 5 <split [1752/641]> Bootstrap0005
 6 <split [1752/651]> Bootstrap0006
 7 <split [1752/637]> Bootstrap0007
 8 <split [1752/638]> Bootstrap0008
 9 <split [1752/662]> Bootstrap0009
10 <split [1752/640]> Bootstrap0010
# ℹ 991 more rows

El resultado es un marco de datos anidado: cada splitsobjeto contiene metadatos que rsample utiliza para subconjuntos de muestras de arranque para cada una de las 1000 muestras. A continuación, ejecutaremos fit_ipw()1000 veces para crear una distribución para estimate. En esencia, el cálculo que estamos haciendo es

fit_ipw(bootstrapped_net_data$splits[[n]])

Donde n es uno de 1000 índices. Usaremos map()la función de purrr para iterar a través de cada splitobjeto.

ipw_results <- bootstrapped_net_data |>
  mutate(boot_fits = map(splits, fit_ipw))

ipw_results

# Bootstrap sampling with apparent sample 
# A tibble: 1,001 × 3
   splits             id            boot_fits       
   <list>             <chr>         <list>          
 1 <split [1752/641]> Bootstrap0001 <tibble [2 × 5]>
 2 <split [1752/630]> Bootstrap0002 <tibble [2 × 5]>
 3 <split [1752/630]> Bootstrap0003 <tibble [2 × 5]>
 4 <split [1752/638]> Bootstrap0004 <tibble [2 × 5]>
 5 <split [1752/641]> Bootstrap0005 <tibble [2 × 5]>
 6 <split [1752/651]> Bootstrap0006 <tibble [2 × 5]>
 7 <split [1752/637]> Bootstrap0007 <tibble [2 × 5]>
 8 <split [1752/638]> Bootstrap0008 <tibble [2 × 5]>
 9 <split [1752/662]> Bootstrap0009 <tibble [2 × 5]>
10 <split [1752/640]> Bootstrap0010 <tibble [2 × 5]>
# ℹ 991 more rows
…
